<?xml version="1.0" encoding="UTF-8" standalone="no"?>
<!-- Created with Inkscape (http://www.inkscape.org/) -->

<svg
   xmlns:dc="http://purl.org/dc/elements/1.1/"
   xmlns:cc="http://creativecommons.org/ns#"
   xmlns:rdf="http://www.w3.org/1999/02/22-rdf-syntax-ns#"
   xmlns:svg="http://www.w3.org/2000/svg"
   xmlns="http://www.w3.org/2000/svg"
   xmlns:xlink="http://www.w3.org/1999/xlink"
   xmlns:sodipodi="http://sodipodi.sourceforge.net/DTD/sodipodi-0.dtd"
   xmlns:inkscape="http://www.inkscape.org/namespaces/inkscape"
   width="30"
   height="60"
   id="svg3642"
   sodipodi:version="0.32"
   inkscape:version="0.47 r22583"
   sodipodi:docname="background.svgz"
   inkscape:output_extension="org.inkscape.output.svgz.inkscape"
   version="1.0">
  <sodipodi:namedview
     id="base"
     pagecolor="#ffffff"
     bordercolor="#666666"
     borderopacity="1.0"
     inkscape:pageopacity="0.0"
     inkscape:pageshadow="2"
     inkscape:zoom="5.6568542"
     inkscape:cx="15"
     inkscape:cy="28.384036"
     inkscape:current-layer="layer2"
     showgrid="true"
     inkscape:grid-bbox="true"
     inkscape:document-units="px"
     inkscape:window-width="1024"
     inkscape:window-height="580"
     inkscape:window-x="-4"
     inkscape:window-y="-3"
     width="48px"
     height="48px"
     showguides="true"
     inkscape:guide-bbox="true"
     objecttolerance="9"
     gridtolerance="13"
     inkscape:window-maximized="1">
    <inkscape:grid
       type="xygrid"
       id="grid2555"
       enabled="true"
       visible="true"
       empspacing="5"
       snapvisiblegridlinesonly="true" />
  </sodipodi:namedview>
  <defs
     id="defs3644">
    <linearGradient
       id="linearGradient42864">
      <stop
         id="stop42866"
         offset="0"
         style="stop-color:#ffffff;stop-opacity:0.58823532;" />
      <stop
         id="stop42868"
         offset="1"
         style="stop-color:#ffffff;stop-opacity:0;" />
    </linearGradient>
    <linearGradient
       id="linearGradient42310">
      <stop
         id="stop42312"
         offset="0"
         style="stop-color:#000000;stop-opacity:0.49019608;" />
      <stop
         id="stop42314"
         offset="1"
         style="stop-color:#000000;stop-opacity:0.74509805;" />
    </linearGradient>
    <linearGradient
       id="linearGradient42139">
      <stop
         id="stop42141"
         offset="0"
         style="stop-color:#ffffff;stop-opacity:0.09803922;" />
      <stop
         id="stop42143"
         offset="1"
         style="stop-color:#ffffff;stop-opacity:0;" />
    </linearGradient>
    <linearGradient
       id="linearGradient42115">
      <stop
         id="stop42117"
         offset="0"
         style="stop-color:#000000;stop-opacity:0;" />
      <stop
         id="stop42119"
         offset="1"
         style="stop-color:#000000;stop-opacity:0.39215687;" />
    </linearGradient>
    <linearGradient
       id="linearGradient42059">
      <stop
         id="stop42061"
         offset="0"
         style="stop-color:#000000;stop-opacity:0.39215687;" />
      <stop
         style="stop-color:#000000;stop-opacity:0.4509804;"
         offset="0.30172414"
         id="stop42111" />
      <stop
         style="stop-color:#000000;stop-opacity:0.49803922;"
         offset="0.5"
         id="stop42075" />
      <stop
         style="stop-color:#ffffff;stop-opacity:0;"
         offset="0.5"
         id="stop42073" />
      <stop
         style="stop-color:#7f7f7f;stop-opacity:0;"
         offset="0.69999999"
         id="stop42071" />
      <stop
         style="stop-color:#ffffff;stop-opacity:0.49803922;"
         offset="0.69999999"
         id="stop42067" />
      <stop
         id="stop42109"
         offset="0.85000002"
         style="stop-color:#ffffff;stop-opacity:0.12446352;" />
      <stop
         id="stop42063"
         offset="1"
         style="stop-color:#ffffff;stop-opacity:0;" />
    </linearGradient>
    <inkscape:perspective
       sodipodi:type="inkscape:persp3d"
       inkscape:vp_x="-50 : 600 : 1"
       inkscape:vp_y="0 : 1000 : 0"
       inkscape:vp_z="700 : 600 : 1"
       inkscape:persp3d-origin="300 : 400 : 1"
       id="perspective3927" />
    <inkscape:perspective
       sodipodi:type="inkscape:persp3d"
       inkscape:vp_x="-50 : 600 : 1"
       inkscape:vp_y="0 : 1000 : 0"
       inkscape:vp_z="700 : 600 : 1"
       inkscape:persp3d-origin="300 : 400 : 1"
       id="perspective173" />
    <radialGradient
       r="640"
       fy="667.86218"
       fx="1940"
       cy="667.86218"
       cx="1940"
       gradientTransform="matrix(0.046875,0,0,0.1886979,139.0625,1096.4758)"
       gradientUnits="userSpaceOnUse"
       id="radialGradient6667"
       xlink:href="#linearGradient38324"
       inkscape:collect="always" />
    <linearGradient
       y2="764.96027"
       x2="460.29968"
       y1="800"
       x1="460.29968"
       gradientTransform="matrix(0.046875,0,0,0.9714286,200,478.85713)"
       gradientUnits="userSpaceOnUse"
       id="linearGradient6665"
       xlink:href="#linearGradient7141"
       inkscape:collect="always" />
    <radialGradient
       r="640"
       fy="668.79901"
       fx="1510.0791"
       cy="667.86218"
       cx="1940"
       gradientTransform="matrix(0.046875,0,0,0.1886979,139.0625,1096.4758)"
       gradientUnits="userSpaceOnUse"
       id="radialGradient6523"
       xlink:href="#linearGradient38324"
       inkscape:collect="always" />
    <linearGradient
       y2="764.96027"
       x2="460.29968"
       y1="800"
       x1="460.29968"
       gradientTransform="matrix(0.046875,0,0,0.9714286,200,478.85713)"
       gradientUnits="userSpaceOnUse"
       id="linearGradient6521"
       xlink:href="#linearGradient7141"
       inkscape:collect="always" />
    <linearGradient
       inkscape:collect="always"
       id="linearGradient38324">
      <stop
         id="stop38326"
         style="stop-color:#ffffff;stop-opacity:1;"
         offset="0" />
      <stop
         id="stop38328"
         style="stop-color:#ffffff;stop-opacity:0;"
         offset="1" />
    </linearGradient>
    <radialGradient
       r="640"
       fy="667.86218"
       fx="1940"
       cy="667.86218"
       cx="1940"
       gradientTransform="matrix(0.046875,0,0,0.1886979,139.0625,1096.4758)"
       gradientUnits="userSpaceOnUse"
       id="radialGradient6410"
       xlink:href="#linearGradient38324"
       inkscape:collect="always" />
    <linearGradient
       y2="764.96027"
       x2="460.29968"
       y1="800"
       x1="460.29968"
       gradientTransform="matrix(0.046875,0,0,0.9714286,200,478.85713)"
       gradientUnits="userSpaceOnUse"
       id="linearGradient6416"
       xlink:href="#linearGradient7141"
       inkscape:collect="always" />
    <radialGradient
       r="91.609398"
       fy="136.14069"
       fx="2132.25"
       cy="136.14069"
       cx="2132.25"
       gradientTransform="matrix(-0.1740976,0,0,-0.3189789,588.2195,1700.637)"
       gradientUnits="userSpaceOnUse"
       id="radialGradient7781"
       xlink:href="#linearGradient3215"
       inkscape:collect="always" />
    <radialGradient
       r="91.609398"
       fy="136.14069"
       fx="2132.25"
       cy="136.14069"
       cx="2132.25"
       gradientTransform="matrix(0.1740976,0,0,-0.3189789,28.999302,1700.6721)"
       gradientUnits="userSpaceOnUse"
       id="radialGradient7779"
       xlink:href="#linearGradient3215"
       inkscape:collect="always" />
    <radialGradient
       r="91.609398"
       fy="136.14062"
       fx="2040.6406"
       cy="136.14062"
       cx="2040.6406"
       gradientTransform="matrix(1,0,0,-0.3189789,-1732.0312,1700.6602)"
       gradientUnits="userSpaceOnUse"
       id="radialGradient7777"
       xlink:href="#linearGradient3215"
       inkscape:collect="always" />
    <linearGradient
       y2="9.2778997"
       x2="50.10762"
       y1="89.277901"
       x1="50.10762"
       gradientTransform="matrix(0.9966917,0,0,1,245.38566,1570.7243)"
       gradientUnits="userSpaceOnUse"
       id="linearGradient7775"
       xlink:href="#linearGradient7141"
       inkscape:collect="always" />
    <radialGradient
       r="91.609375"
       fy="1529.1011"
       fx="214.36403"
       cy="1562.4542"
       cx="214.86403"
       gradientTransform="matrix(1,0,0,0.0317993,1e-7,1538.8854)"
       gradientUnits="userSpaceOnUse"
       id="radialGradient7793"
       xlink:href="#linearGradient3215"
       inkscape:collect="always" />
    <radialGradient
       r="91.609398"
       fy="136.14069"
       fx="2132.25"
       cy="136.14069"
       cx="2132.25"
       gradientTransform="matrix(-0.1681654,0.00341362,0.04209946,0.01190283,569.84457,1578.8558)"
       gradientUnits="userSpaceOnUse"
       id="radialGradient7791"
       xlink:href="#linearGradient3215"
       inkscape:collect="always" />
    <linearGradient
       y2="9.2778997"
       x2="50.10762"
       y1="89.277901"
       x1="50.10762"
       gradientTransform="matrix(1,0,0,0.07575758,244.89238,1586.6911)"
       gradientUnits="userSpaceOnUse"
       id="linearGradient7789"
       xlink:href="#linearGradient7141"
       inkscape:collect="always" />
    <radialGradient
       r="91.609398"
       fy="136.14069"
       fx="2132.25"
       cy="136.14069"
       cx="2132.25"
       gradientTransform="matrix(-0.1740976,0,0,-0.3189789,588.2195,1639.637)"
       gradientUnits="userSpaceOnUse"
       id="radialGradient7773"
       xlink:href="#linearGradient3215"
       inkscape:collect="always" />
    <radialGradient
       r="91.609375"
       fy="1575.4911"
       fx="214.5"
       cy="1608.8442"
       cx="215"
       gradientTransform="matrix(1,0,0,0.4197507,1e-7,878.68648)"
       gradientUnits="userSpaceOnUse"
       id="radialGradient7771"
       xlink:href="#linearGradient3215"
       inkscape:collect="always" />
    <radialGradient
       r="91.609398"
       fy="136.14069"
       fx="2132.25"
       cy="136.14069"
       cx="2132.25"
       gradientTransform="matrix(0.1740976,0,0,-0.3189789,28.999303,1639.6721)"
       gradientUnits="userSpaceOnUse"
       id="radialGradient7769"
       xlink:href="#linearGradient3215"
       inkscape:collect="always" />
    <radialGradient
       r="91.609398"
       fy="136.14062"
       fx="2040.6406"
       cy="136.14062"
       cx="2040.6406"
       gradientTransform="matrix(1,0,0,-0.3189789,-1732.0313,1639.6602)"
       gradientUnits="userSpaceOnUse"
       id="radialGradient7767"
       xlink:href="#linearGradient3215"
       inkscape:collect="always" />
    <radialGradient
       r="91.609398"
       fy="136.14069"
       fx="2132.25"
       cy="136.14069"
       cx="2132.25"
       gradientTransform="matrix(-0.1681654,0.04505977,0.04209946,0.1571173,569.84457,1406.2968)"
       gradientUnits="userSpaceOnUse"
       id="radialGradient7765"
       xlink:href="#linearGradient3215"
       inkscape:collect="always" />
    <linearGradient
       y2="9.2778997"
       x2="50.10762"
       y1="89.277901"
       x1="50.10762"
       gradientTransform="translate(244.89238,1509.7221)"
       gradientUnits="userSpaceOnUse"
       id="linearGradient7763"
       xlink:href="#linearGradient7141"
       inkscape:collect="always" />
    <radialGradient
       r="91.609375"
       fy="1529.8208"
       fx="214.11086"
       cy="1563.174"
       cx="214.61086"
       gradientTransform="matrix(-1,0,0,0.0317993,453,1538.8854)"
       gradientUnits="userSpaceOnUse"
       id="radialGradient7787"
       xlink:href="#linearGradient3215"
       inkscape:collect="always" />
    <radialGradient
       r="91.609398"
       fy="136.14069"
       fx="2132.25"
       cy="136.14069"
       cx="2132.25"
       gradientTransform="matrix(0.1681654,0.00341362,-0.04209946,0.01190283,-116.84457,1578.8558)"
       gradientUnits="userSpaceOnUse"
       id="radialGradient7785"
       xlink:href="#linearGradient3215"
       inkscape:collect="always" />
    <linearGradient
       y2="9.2778997"
       x2="50.10762"
       y1="89.277901"
       x1="50.10762"
       gradientTransform="matrix(-1,0,0,0.07575758,208.10762,1586.6911)"
       gradientUnits="userSpaceOnUse"
       id="linearGradient7783"
       xlink:href="#linearGradient7141"
       inkscape:collect="always" />
    <radialGradient
       r="91.609398"
       fy="136.14069"
       fx="2132.25"
       cy="136.14069"
       cx="2132.25"
       gradientTransform="matrix(0.1740976,0,0,-0.3189789,-135.2195,1639.637)"
       gradientUnits="userSpaceOnUse"
       id="radialGradient7761"
       xlink:href="#linearGradient3215"
       inkscape:collect="always" />
    <radialGradient
       r="91.609375"
       fy="1575.4911"
       fx="214.5"
       cy="1608.8442"
       cx="215"
       gradientTransform="matrix(-1,0,0,0.4197507,453,878.68648)"
       gradientUnits="userSpaceOnUse"
       id="radialGradient7759"
       xlink:href="#linearGradient3215"
       inkscape:collect="always" />
    <radialGradient
       r="91.609398"
       fy="136.14069"
       fx="2132.25"
       cy="136.14069"
       cx="2132.25"
       gradientTransform="matrix(-0.1740976,0,0,-0.3189789,424.0007,1639.6721)"
       gradientUnits="userSpaceOnUse"
       id="radialGradient7757"
       xlink:href="#linearGradient3215"
       inkscape:collect="always" />
    <radialGradient
       r="91.609398"
       fy="136.14062"
       fx="2040.6406"
       cy="136.14062"
       cx="2040.6406"
       gradientTransform="matrix(-1,0,0,-0.3189789,2185.0313,1639.6602)"
       gradientUnits="userSpaceOnUse"
       id="radialGradient7755"
       xlink:href="#linearGradient3215"
       inkscape:collect="always" />
    <radialGradient
       r="91.609398"
       fy="136.14069"
       fx="2132.25"
       cy="136.14069"
       cx="2132.25"
       gradientTransform="matrix(0.1681654,0.04505977,-0.04209946,0.1571173,-116.84457,1406.2968)"
       gradientUnits="userSpaceOnUse"
       id="radialGradient7753"
       xlink:href="#linearGradient3215"
       inkscape:collect="always" />
    <linearGradient
       y2="9.2778997"
       x2="50.10762"
       y1="89.277901"
       x1="50.10762"
       gradientTransform="matrix(-1,0,0,1,208.10762,1509.7221)"
       gradientUnits="userSpaceOnUse"
       id="linearGradient7751"
       xlink:href="#linearGradient7141"
       inkscape:collect="always" />
    <radialGradient
       r="91.609398"
       fy="136.14069"
       fx="2132.25"
       cy="136.14069"
       cx="2132.25"
       gradientTransform="matrix(0.00496246,0.04505977,-0.00124233,0.1571173,213.79434,1467.2968)"
       gradientUnits="userSpaceOnUse"
       id="radialGradient7901"
       xlink:href="#linearGradient3215"
       inkscape:collect="always" />
    <radialGradient
       r="91.609375"
       fy="1575.4911"
       fx="214.5"
       cy="1608.8442"
       cx="215"
       gradientTransform="matrix(-0.02950939,0,0,-0.4197507,230.6101,2223.3112)"
       gradientUnits="userSpaceOnUse"
       id="radialGradient7899"
       xlink:href="#linearGradient3215"
       inkscape:collect="always" />
    <radialGradient
       r="91.609375"
       fy="1575.4911"
       fx="214.5"
       cy="1608.8442"
       cx="215"
       gradientTransform="matrix(0.02950939,0,0,0.4197507,212.3733,939.68651)"
       gradientUnits="userSpaceOnUse"
       id="radialGradient7897"
       xlink:href="#linearGradient3215"
       inkscape:collect="always" />
    <radialGradient
       r="91.609398"
       fy="136.14069"
       fx="2132.25"
       cy="136.14069"
       cx="2132.25"
       gradientTransform="matrix(-0.00496246,0.04505977,0.00124233,0.1571173,229.18906,1467.2968)"
       gradientUnits="userSpaceOnUse"
       id="radialGradient7895"
       xlink:href="#linearGradient3215"
       inkscape:collect="always" />
    <radialGradient
       r="91.609398"
       fy="136.14062"
       fx="2040.6406"
       cy="136.14062"
       cx="2040.6406"
       gradientTransform="matrix(0.02950939,0,0,0.3189789,161.26211,1541.3405)"
       gradientUnits="userSpaceOnUse"
       id="radialGradient7893"
       xlink:href="#linearGradient3215"
       inkscape:collect="always" />
    <linearGradient
       id="linearGradient7141">
      <stop
         id="stop7143"
         style="stop-color:#222222;stop-opacity:1;"
         offset="0" />
      <stop
         id="stop7149"
         style="stop-color:#0c0c0c;stop-opacity:1;"
         offset="0.23586744" />
      <stop
         id="stop7145"
         style="stop-color:#000000;stop-opacity:1"
         offset="1" />
    </linearGradient>
    <linearGradient
       y2="9.2778997"
       x2="50.10762"
       y1="89.277901"
       x1="50.10762"
       gradientTransform="matrix(0.02950939,0,0,1,224.61652,1570.7221)"
       gradientUnits="userSpaceOnUse"
       id="linearGradient7891"
       xlink:href="#linearGradient7141"
       inkscape:collect="always" />
    <linearGradient
       id="linearGradient3215">
      <stop
         id="stop3217"
         style="stop-color:#ffffff;stop-opacity:1;"
         offset="0" />
      <stop
         id="stop3221"
         style="stop-color:#ffffff;stop-opacity:0.28158844;"
         offset="0.5" />
      <stop
         id="stop3219"
         style="stop-color:#ffffff;stop-opacity:0;"
         offset="1" />
    </linearGradient>
    <radialGradient
       r="91.609375"
       fy="1575.4911"
       fx="214.5"
       cy="1608.8442"
       cx="215"
       gradientTransform="matrix(-0.02950939,0,0,0.4197507,230.58705,939.68651)"
       gradientUnits="userSpaceOnUse"
       id="radialGradient7889"
       xlink:href="#linearGradient3215"
       inkscape:collect="always" />
    <linearGradient
       inkscape:collect="always"
       xlink:href="#linearGradient7141"
       id="linearGradient4303"
       gradientUnits="userSpaceOnUse"
       gradientTransform="matrix(0.046875,0,0,0.9714286,200,478.85713)"
       x1="460.29968"
       y1="800"
       x2="460.29968"
       y2="764.96027" />
    <radialGradient
       inkscape:collect="always"
       xlink:href="#linearGradient38324"
       id="radialGradient4305"
       gradientUnits="userSpaceOnUse"
       gradientTransform="matrix(0.046875,0,0,0.1886979,139.0625,1096.4758)"
       cx="1940"
       cy="667.86218"
       fx="1510.0791"
       fy="668.79901"
       r="640" />
    <linearGradient
       inkscape:collect="always"
       xlink:href="#linearGradient7141"
       id="linearGradient4335"
       gradientUnits="userSpaceOnUse"
       gradientTransform="matrix(0.046875,0,0,0.9714286,200,478.85713)"
       x1="460.29968"
       y1="800"
       x2="460.29968"
       y2="764.96027" />
    <radialGradient
       inkscape:collect="always"
       xlink:href="#linearGradient38324"
       id="radialGradient4337"
       gradientUnits="userSpaceOnUse"
       gradientTransform="matrix(0.046875,0,0,0.1886979,139.0625,1096.4758)"
       cx="1940"
       cy="667.86218"
       fx="1510.0791"
       fy="668.79901"
       r="640" />
    <linearGradient
       inkscape:collect="always"
       xlink:href="#linearGradient7141"
       id="linearGradient4367"
       gradientUnits="userSpaceOnUse"
       gradientTransform="matrix(0.046875,0,0,0.9714286,200,478.85713)"
       x1="460.29968"
       y1="800"
       x2="460.29968"
       y2="764.96027" />
    <radialGradient
       inkscape:collect="always"
       xlink:href="#linearGradient38324"
       id="radialGradient4369"
       gradientUnits="userSpaceOnUse"
       gradientTransform="matrix(0.046875,0,0,0.1886979,139.0625,1096.4758)"
       cx="1940"
       cy="667.86218"
       fx="1940"
       fy="667.86218"
       r="640" />
    <linearGradient
       inkscape:collect="always"
       xlink:href="#linearGradient7141"
       id="linearGradient4385"
       gradientUnits="userSpaceOnUse"
       gradientTransform="matrix(0.046875,0,0,0.9714286,200,478.85713)"
       x1="460.29968"
       y1="800"
       x2="460.29968"
       y2="764.96027" />
    <radialGradient
       inkscape:collect="always"
       xlink:href="#linearGradient38324"
       id="radialGradient4387"
       gradientUnits="userSpaceOnUse"
       gradientTransform="matrix(0.046875,0,0,0.1886979,139.0625,1096.4758)"
       cx="1940"
       cy="667.86218"
       fx="1940"
       fy="667.86218"
       r="640" />
    <linearGradient
       inkscape:collect="always"
       xlink:href="#linearGradient7141"
       id="linearGradient4395"
       gradientUnits="userSpaceOnUse"
       gradientTransform="matrix(0.046875,0,0,0.9714286,200,478.85713)"
       x1="460.29968"
       y1="800"
       x2="460.29968"
       y2="764.96027" />
    <radialGradient
       inkscape:collect="always"
       xlink:href="#linearGradient38324"
       id="radialGradient4397"
       gradientUnits="userSpaceOnUse"
       gradientTransform="matrix(0.046875,0,0,0.1886979,139.0625,1096.4758)"
       cx="1940"
       cy="667.86218"
       fx="1940"
       fy="667.86218"
       r="640" />
    <linearGradient
       inkscape:collect="always"
       xlink:href="#linearGradient7141"
       id="linearGradient2337"
       gradientUnits="userSpaceOnUse"
       gradientTransform="matrix(0.046875,0,0,0.9714286,200,478.85713)"
       x1="460.29968"
       y1="800"
       x2="460.29968"
       y2="764.96027" />
    <radialGradient
       inkscape:collect="always"
       xlink:href="#linearGradient38324"
       id="radialGradient2339"
       gradientUnits="userSpaceOnUse"
       gradientTransform="matrix(0.046875,0,0,0.1886979,139.0625,1096.4758)"
       cx="1940"
       cy="667.86218"
       fx="1940"
       fy="667.86218"
       r="640" />
    <inkscape:perspective
       id="perspective3529"
       inkscape:persp3d-origin="300 : 400 : 1"
       inkscape:vp_z="700 : 600 : 1"
       inkscape:vp_y="0 : 1000 : 0"
       inkscape:vp_x="-50 : 600 : 1"
       sodipodi:type="inkscape:persp3d" />
    <radialGradient
       inkscape:collect="always"
       xlink:href="#linearGradient3215"
       id="radialGradient3581"
       gradientUnits="userSpaceOnUse"
       gradientTransform="matrix(-1,0,0,0.0317993,302,21.8832)"
       cx="214.61086"
       cy="1563.174"
       fx="214.11086"
       fy="1529.8208"
       r="91.609375" />
    <radialGradient
       inkscape:collect="always"
       xlink:href="#linearGradient3215"
       id="radialGradient3614"
       gradientUnits="userSpaceOnUse"
       gradientTransform="matrix(1,0,0,0.0317993,-153,21.8832)"
       cx="214.86403"
       cy="1562.4542"
       fx="214.36403"
       fy="1529.1011"
       r="91.609375" />
    <inkscape:perspective
       id="perspective3634"
       inkscape:persp3d-origin="300 : 400 : 1"
       inkscape:vp_z="700 : 600 : 1"
       inkscape:vp_y="0 : 1000 : 0"
       inkscape:vp_x="-50 : 600 : 1"
       sodipodi:type="inkscape:persp3d" />
    <inkscape:perspective
       id="perspective3647"
       inkscape:persp3d-origin="300 : 400 : 1"
       inkscape:vp_z="700 : 600 : 1"
       inkscape:vp_y="0 : 1000 : 0"
       inkscape:vp_x="-50 : 600 : 1"
       sodipodi:type="inkscape:persp3d" />
    <inkscape:perspective
       id="perspective3660"
       inkscape:persp3d-origin="300 : 400 : 1"
       inkscape:vp_z="700 : 600 : 1"
       inkscape:vp_y="0 : 1000 : 0"
       inkscape:vp_x="-50 : 600 : 1"
       sodipodi:type="inkscape:persp3d" />
    <inkscape:perspective
       id="perspective3673"
       inkscape:persp3d-origin="300 : 400 : 1"
       inkscape:vp_z="700 : 600 : 1"
       inkscape:vp_y="0 : 1000 : 0"
       inkscape:vp_x="-50 : 600 : 1"
       sodipodi:type="inkscape:persp3d" />
    <linearGradient
       y2="9.2778997"
       x2="50.10762"
       y1="89.277901"
       x1="50.10762"
       gradientTransform="matrix(0.9966917,0,0,1,245.38566,1570.7243)"
       gradientUnits="userSpaceOnUse"
       id="linearGradient2439"
       xlink:href="#linearGradient7141"
       inkscape:collect="always" />
    <radialGradient
       r="91.609398"
       fy="136.14062"
       fx="2040.6406"
       cy="136.14062"
       cx="2040.6406"
       gradientTransform="matrix(1,0,0,-0.3189789,-1732.0312,1700.6602)"
       gradientUnits="userSpaceOnUse"
       id="radialGradient2441"
       xlink:href="#linearGradient3215"
       inkscape:collect="always" />
    <radialGradient
       r="91.609398"
       fy="136.14069"
       fx="2132.25"
       cy="136.14069"
       cx="2132.25"
       gradientTransform="matrix(0.1740976,0,0,-0.3189789,28.999302,1700.6721)"
       gradientUnits="userSpaceOnUse"
       id="radialGradient2443"
       xlink:href="#linearGradient3215"
       inkscape:collect="always" />
    <radialGradient
       r="91.609398"
       fy="136.14069"
       fx="2132.25"
       cy="136.14069"
       cx="2132.25"
       gradientTransform="matrix(-0.1740976,0,0,-0.3189789,588.2195,1700.637)"
       gradientUnits="userSpaceOnUse"
       id="radialGradient2445"
       xlink:href="#linearGradient3215"
       inkscape:collect="always" />
    <radialGradient
       r="91.609398"
       fy="136.14062"
       fx="2040.6406"
       cy="136.14062"
       cx="2040.6406"
       gradientTransform="matrix(1,0,0,-0.3182575,-1731.4668,1700.5705)"
       gradientUnits="userSpaceOnUse"
       id="radialGradient2453"
       xlink:href="#linearGradient3215"
       inkscape:collect="always" />
    <radialGradient
       r="91.609398"
       fy="136.14069"
       fx="2132.25"
       cy="136.14069"
       cx="2132.25"
       gradientTransform="matrix(0.1740976,0,0,-0.3185758,29.563694,1700.622)"
       gradientUnits="userSpaceOnUse"
       id="radialGradient2455"
       xlink:href="#linearGradient3215"
       inkscape:collect="always" />
    <radialGradient
       r="91.609398"
       fy="136.14069"
       fx="2132.25"
       cy="136.14069"
       cx="2132.25"
       gradientTransform="matrix(-0.1740976,0,0,-0.3185899,588.78391,1700.5887)"
       gradientUnits="userSpaceOnUse"
       id="radialGradient2457"
       xlink:href="#linearGradient3215"
       inkscape:collect="always" />
    <linearGradient
       y2="9.2778997"
       x2="50.10762"
       y1="89.277901"
       x1="50.10762"
       gradientTransform="translate(245.45478,1570.7243)"
       gradientUnits="userSpaceOnUse"
       id="linearGradient2459"
       xlink:href="#linearGradient7141"
       inkscape:collect="always" />
    <linearGradient
       y2="17"
       x2="7"
       y1="17"
       x1="17"
       gradientTransform="translate(7.6350098e-7,2.9999992)"
       gradientUnits="userSpaceOnUse"
       id="linearGradient44185"
       xlink:href="#linearGradient42864"
       inkscape:collect="always" />
    <linearGradient
       y2="17"
       x2="15"
       y1="17"
       x1="17"
       gradientTransform="matrix(1.5,0,0,1,-7.4999988,2.9999992)"
       gradientUnits="userSpaceOnUse"
       id="linearGradient44392"
       xlink:href="#linearGradient42310"
       inkscape:collect="always" />
    <inkscape:perspective
       sodipodi:type="inkscape:persp3d"
       inkscape:vp_x="0 : 526.18109 : 1"
       inkscape:vp_y="0 : 1000 : 0"
       inkscape:vp_z="744.09448 : 526.18109 : 1"
       inkscape:persp3d-origin="372.04724 : 350.78739 : 1"
       id="perspective45223" />
    <inkscape:perspective
       sodipodi:type="inkscape:persp3d"
       inkscape:vp_x="0 : 526.18109 : 1"
       inkscape:vp_y="0 : 1000 : 0"
       inkscape:vp_z="744.09448 : 526.18109 : 1"
       inkscape:persp3d-origin="372.04724 : 350.78739 : 1"
       id="perspective45882" />
    <inkscape:perspective
       sodipodi:type="inkscape:persp3d"
       inkscape:vp_x="0 : 526.18109 : 1"
       inkscape:vp_y="0 : 1000 : 0"
       inkscape:vp_z="744.09448 : 526.18109 : 1"
       inkscape:persp3d-origin="372.04724 : 350.78739 : 1"
       id="perspective46177" />
  </defs>
  <metadata
     id="metadata3647">
    <rdf:RDF>
      <cc:Work
         rdf:about="">
        <dc:format>image/svg+xml</dc:format>
        <dc:type
           rdf:resource="http://purl.org/dc/dcmitype/StillImage" />
      </cc:Work>
      <cc:Work
         rdf:about="">
        <dc:format>image/svg+xml</dc:format>
        <dc:type
           rdf:resource="http://purl.org/dc/dcmitype/StillImage" />
      </cc:Work>
    </rdf:RDF>
  </metadata>
  <g
     style="display:inline"
     id="layer2"
     inkscape:groupmode="layer"
     transform="translate(0,10)">
    <rect
       style="opacity:0.875;fill:#008000;fill-opacity:1;stroke:none"
       id="hint-stretch-borders"
       width="5"
       height="5"
       x="-10"
       y="0" />
    <rect
       style="fill:#000000;fill-opacity:0.78431373"
       id="center"
       width="10"
       height="20"
       x="10"
       y="10"
       inkscape:label="#rect3705" />
    <g
       id="left"
       inkscape:label="#g3772">
      <rect
         style="fill:#000000;fill-opacity:0.78431373"
         id="rect3713"
         width="10"
         height="20"
         x="0"
         y="10" />
      <path
         id="rect3738"
         transform="translate(0,-10)"
         d="M 3 20 L 3 40 L 4 40 L 4 20 L 3 20 z M 6 20 L 6 40 L 7 40 L 7 20 L 6 20 z "
         style="fill:#ffffff;fill-opacity:1;stroke:none" />
    </g>
    <path
       style="fill:#ffffff;fill-opacity:0.42995169;stroke:none"
       d="m -34,-6 0,21 26,0 0,-21 -26,0 z m 1,1 24,0 0,19 -24,0 0,-19 z"
       id="rect3740" />
    <g
       id="topleft"
       inkscape:label="#g3768">
      <rect
         y="-10"
         x="0"
         height="20"
         width="10"
         id="rect3709"
         style="fill:#000000;fill-opacity:0.78431373" />
      <path
         id="path3754"
         transform="translate(0,-10)"
         d="M 3 8 L 3 20 L 4 20 L 4 9 L 10 9 L 10 8 L 3 8 z M 6 11 L 6 20 L 7 20 L 7 12 L 10 12 L 10 11 L 6 11 z "
         style="fill:#ffffff;fill-opacity:1;stroke:none" />
    </g>
    <g
       id="top"
       inkscape:label="#g3776">
      <rect
         style="fill:#000000;fill-opacity:0.78431373"
         id="rect3707"
         width="10"
         height="20"
         x="10"
         y="-10" />
      <path
         id="rect3760"
         transform="translate(0,-10)"
         d="M 10 8 L 10 9 L 20 9 L 20 8 L 10 8 z M 10 11 L 10 12 L 20 12 L 20 11 L 10 11 z "
         style="fill:#ffffff;fill-opacity:1" />
    </g>
    <use
       x="0"
       y="0"
       xlink:href="#topleft"
       id="topright"
       transform="matrix(-1,0,0,1,30,0)"
       width="30"
       height="60"
       inkscape:label="#use3780" />
    <use
       x="0"
       y="0"
       xlink:href="#left"
       id="right"
       transform="translate(20,0)"
       width="30"
       height="60"
       inkscape:label="#use3782" />
    <use
       x="0"
       y="0"
       xlink:href="#topleft"
       id="bottomleft"
       transform="matrix(1,0,0,-1,0,40)"
       width="30"
       height="60"
       inkscape:label="#use3784" />
    <use
       x="0"
       y="0"
       xlink:href="#top"
       id="bottom"
       transform="matrix(1,0,0,-1,0,40)"
       width="30"
       height="60"
       inkscape:label="#use3786" />
    <use
       x="0"
       y="0"
       xlink:href="#topright"
       id="bottomright"
       transform="matrix(1,0,0,-1,0,40)"
       width="30"
       height="60"
       inkscape:label="#use3788" />
  </g>
  <g
     style="display:inline"
     id="layer1"
     inkscape:label="FG"
     inkscape:groupmode="layer"
     transform="translate(0,10)" />
</svg>
