<?xml version="1.0" encoding="UTF-8" standalone="no"?>
<!-- Created with Inkscape (http://www.inkscape.org/) -->

<svg
   xmlns:dc="http://purl.org/dc/elements/1.1/"
   xmlns:cc="http://creativecommons.org/ns#"
   xmlns:rdf="http://www.w3.org/1999/02/22-rdf-syntax-ns#"
   xmlns:svg="http://www.w3.org/2000/svg"
   xmlns="http://www.w3.org/2000/svg"
   xmlns:xlink="http://www.w3.org/1999/xlink"
   xmlns:sodipodi="http://sodipodi.sourceforge.net/DTD/sodipodi-0.dtd"
   xmlns:inkscape="http://www.inkscape.org/namespaces/inkscape"
   width="132"
   height="32"
   id="svg2318"
   sodipodi:version="0.32"
   inkscape:version="0.47 r22583"
   sodipodi:docname="bar_meter_horizontal.svgz"
   inkscape:output_extension="org.inkscape.output.svgz.inkscape"
   version="1.0">
  <defs
     id="defs2320">
    <linearGradient
       inkscape:collect="always"
       id="linearGradient3281">
      <stop
         style="stop-color:#f0f0f0;stop-opacity:1;"
         offset="0"
         id="stop3283" />
      <stop
         style="stop-color:#f0f0f0;stop-opacity:0;"
         offset="1"
         id="stop3285" />
    </linearGradient>
    <linearGradient
       id="linearGradient4548">
      <stop
         id="stop67376"
         offset="0"
         style="stop-color:#ffffff;stop-opacity:0.70588237;" />
      <stop
         style="stop-color:#ffffff;stop-opacity:0.39215687;"
         offset="0.5"
         id="stop67378" />
      <stop
         id="stop67380"
         offset="0.5"
         style="stop-color:#f7f7f7;stop-opacity:0.27450982;" />
      <stop
         style="stop-color:#ffffff;stop-opacity:0.39215687;"
         offset="1"
         id="stop4552" />
    </linearGradient>
    <linearGradient
       inkscape:collect="always"
       xlink:href="#linearGradient4548"
       id="linearGradient4107"
       gradientUnits="userSpaceOnUse"
       gradientTransform="translate(-954.75356,-679.0331)"
       x1="1070.8976"
       y1="719.87683"
       x2="1070.8976"
       y2="764.50409" />
    <inkscape:perspective
       sodipodi:type="inkscape:persp3d"
       inkscape:vp_x="0 : 16 : 1"
       inkscape:vp_y="0 : 1000 : 0"
       inkscape:vp_z="132 : 16 : 1"
       inkscape:persp3d-origin="66 : 10.666667 : 1"
       id="perspective3281" />
    <linearGradient
       inkscape:collect="always"
       xlink:href="#linearGradient4548"
       id="linearGradient3415"
       gradientUnits="userSpaceOnUse"
       x1="107.75"
       y1="26.75"
       x2="107.75"
       y2="71.105026" />
    <linearGradient
       inkscape:collect="always"
       xlink:href="#linearGradient3281"
       id="linearGradient3417"
       gradientUnits="userSpaceOnUse"
       x1="106.5"
       y1="26.375"
       x2="106.5"
       y2="71.392357" />
    <linearGradient
       inkscape:collect="always"
       xlink:href="#linearGradient3281"
       id="linearGradient3419"
       gradientUnits="userSpaceOnUse"
       x1="106.5"
       y1="26.375"
       x2="106.5"
       y2="71.392357" />
    <linearGradient
       inkscape:collect="always"
       xlink:href="#linearGradient3281"
       id="linearGradient3428"
       gradientUnits="userSpaceOnUse"
       x1="106.5"
       y1="26.375"
       x2="106.5"
       y2="71.392357"
       gradientTransform="matrix(-1,0,0,-1,98.999995,120)" />
    <linearGradient
       inkscape:collect="always"
       xlink:href="#linearGradient3281"
       id="linearGradient3432"
       gradientUnits="userSpaceOnUse"
       x1="106.5"
       y1="26.375"
       x2="106.5"
       y2="71.392357"
       gradientTransform="matrix(1,0,0,-1,0,120)" />
    <linearGradient
       inkscape:collect="always"
       xlink:href="#linearGradient4548"
       id="linearGradient3436"
       gradientUnits="userSpaceOnUse"
       x1="107.75"
       y1="26.75"
       x2="107.75"
       y2="71.105026"
       gradientTransform="matrix(1,0,0,-1,0,120)" />
  </defs>
  <sodipodi:namedview
     id="base"
     pagecolor="#000000"
     bordercolor="#666666"
     borderopacity="1.0"
     gridtolerance="10000"
     guidetolerance="10"
     objecttolerance="10"
     inkscape:pageopacity="0.50196078"
     inkscape:pageshadow="2"
     inkscape:zoom="105.28"
     inkscape:cx="49.875"
     inkscape:cy="-15.388298"
     inkscape:document-units="px"
     inkscape:current-layer="layer1"
     inkscape:window-width="1440"
     inkscape:window-height="814"
     inkscape:window-x="-4"
     inkscape:window-y="-3"
     width="132px"
     height="32px"
     showgrid="false"
     inkscape:window-maximized="1"
     showguides="true"
     inkscape:guide-bbox="true">
    <sodipodi:guide
       orientation="0,1"
       position="49.715046,-4.3218085"
       id="guide7533" />
    <sodipodi:guide
       orientation="1,0"
       position="46.56155,-6.4779635"
       id="guide7535" />
    <sodipodi:guide
       orientation="1,0"
       position="53.571429,-6.6014438"
       id="guide7537" />
    <sodipodi:guide
       orientation="0,1"
       position="46.780015,-16.327888"
       id="guide7539" />
  </sodipodi:namedview>
  <metadata
     id="metadata2323">
    <rdf:RDF>
      <cc:Work
         rdf:about="">
        <dc:format>image/svg+xml</dc:format>
        <dc:type
           rdf:resource="http://purl.org/dc/dcmitype/StillImage" />
      </cc:Work>
    </rdf:RDF>
  </metadata>
  <g
     inkscape:label="Layer 1"
     inkscape:groupmode="layer"
     id="layer1">
    <rect
       style="opacity:0.19101126;fill:#cecece;fill-opacity:1;stroke:none"
       id="background"
       width="132"
       height="16"
       x="-4.7494506e-08"
       y="15"
       rx="0"
       ry="0"
       inkscape:export-filename="/home/pinheiro/Documents/pics/estilo/plasma/rect2996.png"
       inkscape:export-xdpi="90"
       inkscape:export-ydpi="90" />
    <rect
       style="opacity:1;fill:#0000ff;fill-opacity:0.50196078;fill-rule:evenodd;stroke:none;stroke-width:3.19400001;stroke-linecap:round;stroke-linejoin:round;stroke-miterlimit:4;stroke-dasharray:none;stroke-opacity:0.50196078"
       id="label0"
       width="65"
       height="12"
       x="0"
       y="1" />
    <rect
       y="1"
       x="67"
       height="12"
       width="65"
       id="label1"
       style="opacity:1;fill:#0000ff;fill-opacity:0.50196078;fill-rule:evenodd;stroke:none;stroke-width:3.19400001;stroke-linecap:round;stroke-linejoin:round;stroke-miterlimit:4;stroke-dasharray:none;stroke-opacity:0.50196078" />
    <rect
       y="1"
       x="35"
       height="12"
       width="65"
       id="label2"
       style="opacity:1;fill:#0000ff;fill-opacity:0.50196078;fill-rule:evenodd;stroke:none;stroke-width:3.19400001;stroke-linecap:round;stroke-linejoin:round;stroke-miterlimit:4;stroke-dasharray:none;stroke-opacity:0.50196078" />
    <path
       style="fill:#f0f0f0;fill-opacity:0.1081081;stroke:none;stroke-width:0.30000001;stroke-linecap:round;stroke-linejoin:round;stroke-miterlimit:4;stroke-opacity:1"
       d="M 47.57367,36.329243 L 47.57367,37.329243 L 52.57367,37.329243 L 52.57367,36.329243 L 47.57367,36.329243 z"
       id="background-top" />
    <path
       style="fill:#f0f0f0;fill-opacity:0.1081081;stroke:none;stroke-width:0.30000001;stroke-linecap:round;stroke-linejoin:round;stroke-miterlimit:4;stroke-opacity:1"
       d="m 52.57367,36.329243 0,1 1,0 -0.0022,-1.007434 -0.997759,0.0074 z"
       id="background-topright"
       sodipodi:nodetypes="ccccc" />
    <path
       style="fill:#f0f0f0;fill-opacity:0.1081081;stroke:none;stroke-width:0.30000001;stroke-linecap:round;stroke-linejoin:round;stroke-miterlimit:4;stroke-opacity:1"
       d="m 47.57367,36.329243 -1.01212,-0.0074 0.01212,1.007434 1,0 0,-1 z"
       id="background-topleft"
       sodipodi:nodetypes="ccccc" />
    <path
       style="fill:#f0f0f0;fill-opacity:0.1081081;stroke:none;stroke-width:0.30000001;stroke-linecap:round;stroke-linejoin:round;stroke-miterlimit:4;stroke-opacity:1"
       d="M 47.57367,37.329243 L 47.57367,47.329243 L 52.57367,47.329243 L 52.57367,37.329243 L 47.57367,37.329243 z"
       id="background-center" />
    <path
       id="background-left"
       d="M 46.57367,37.329243 L 46.57367,47.329243 L 47.57367,47.329243 L 47.57367,37.329243 L 46.57367,37.329243 z"
       style="fill:#f0f0f0;fill-opacity:0.1081081;stroke:none;stroke-width:0.30000001;stroke-linecap:round;stroke-linejoin:round;stroke-miterlimit:4;stroke-opacity:1" />
    <path
       style="fill:#f0f0f0;fill-opacity:0.1081081;stroke:none;stroke-width:0.30000001;stroke-linecap:round;stroke-linejoin:round;stroke-miterlimit:4;stroke-opacity:1"
       d="M 52.57367,37.329243 L 52.57367,47.329243 L 53.57367,47.329243 L 53.57367,37.329243 L 52.57367,37.329243 z"
       id="background-right" />
    <path
       id="background-bottom"
       d="M 47.57367,48.329243 L 47.57367,47.329243 L 52.57367,47.329243 L 52.57367,48.329243 L 47.57367,48.329243 z"
       style="fill:#f0f0f0;fill-opacity:0.1081081;stroke:none;stroke-width:0.30000001;stroke-linecap:round;stroke-linejoin:round;stroke-miterlimit:4;stroke-opacity:1" />
    <path
       id="background-bottomright"
       d="m 52.57367,48.329243 0,-1 1,0 -0.0022,0.998645 -0.997759,0.0014 z"
       style="fill:#f0f0f0;fill-opacity:0.1081081;stroke:none;stroke-width:0.30000001;stroke-linecap:round;stroke-linejoin:round;stroke-miterlimit:4;stroke-opacity:1"
       sodipodi:nodetypes="ccccc" />
    <path
       id="background-bottomleft"
       d="m 47.57367,48.329243 -1.01212,-0.0014 0.01212,-0.998645 1,0 0,1 z"
       style="fill:#f0f0f0;fill-opacity:0.1081081;stroke:none;stroke-width:0.30000001;stroke-linecap:round;stroke-linejoin:round;stroke-miterlimit:4;stroke-opacity:1"
       sodipodi:nodetypes="ccccc" />
    <g
       id="bar-active-top"
       transform="translate(9.5459415,-17.67767)"
       style="fill:#ffffff;fill-opacity:0.58823532">
      <path
         id="path3371"
         d="M 48,54 L 48,56 L 50.99587,56 L 50.99587,54 L 48,54 z"
         style="fill:#ffffff;fill-opacity:0.58823532;stroke:none;stroke-width:0.30000000999999998;stroke-linecap:round;stroke-linejoin:round;stroke-miterlimit:4;stroke-opacity:1" />
    </g>
    <g
       id="bar-active-topleft"
       transform="translate(9.5459415,-17.67767)"
       style="fill:#ffffff;fill-opacity:0.58823532">
      <path
         id="path3355"
         d="M 46,54 L 46,56 L 48,56 L 48,54 L 46,54 z"
         style="fill:#ffffff;fill-opacity:0.58823532;stroke:none;stroke-width:0.30000000999999998;stroke-linecap:round;stroke-linejoin:round;stroke-miterlimit:4;stroke-opacity:1" />
    </g>
    <path
       id="bar-active-center"
       d="M 57.550072,38.32233 L 57.550072,46.32233 L 60.545942,46.32233 L 60.545942,38.32233 L 57.550072,38.32233 z"
       style="fill:#ffffff;fill-opacity:0.58823532;stroke:none;stroke-width:0.30000000999999998;stroke-linecap:round;stroke-linejoin:round;stroke-miterlimit:4;stroke-opacity:1" />
    <g
       id="bar-active-left"
       transform="translate(9.5459415,-17.67767)"
       style="fill:#ffffff;fill-opacity:0.58823532">
      <path
         style="opacity:1;fill:#ffffff;fill-opacity:0.58823532000000001;stroke:none;stroke-width:0.30000000999999998;stroke-linecap:round;stroke-linejoin:round;stroke-miterlimit:4;stroke-opacity:1"
         d="M 46,56 L 46,64 L 48,64 L 48,56 L 46,56 z"
         id="path3347" />
    </g>
    <g
       id="bar-active-topright"
       transform="matrix(-1,0,0,1,108.54593,-17.67767)"
       style="fill:#ffffff;fill-opacity:0.58823532">
      <path
         style="fill:#ffffff;fill-opacity:0.58823532;stroke:none;stroke-width:0.30000000999999998;stroke-linecap:round;stroke-linejoin:round;stroke-miterlimit:4;stroke-opacity:1"
         d="M 46,54 L 46,56 L 48,56 L 48,54 L 46,54 z"
         id="path3381" />
    </g>
    <g
       id="bar-active-right"
       transform="matrix(-1,0,0,1,108.54973,-17.67767)"
       style="fill:#ffffff;fill-opacity:0.58823532">
      <path
         id="path3389"
         d="M 46,56 L 46,64 L 48,64 L 48,56 L 46,56 z"
         style="opacity:1;fill:#ffffff;fill-opacity:0.58823532000000001;stroke:none;stroke-width:0.30000000999999998;stroke-linecap:round;stroke-linejoin:round;stroke-miterlimit:4;stroke-opacity:1" />
    </g>
    <g
       id="bar-active-bottom"
       transform="translate(9.5459415,-17.67767)"
       style="fill:#ffffff;fill-opacity:0.58823532">
      <path
         style="fill:#ffffff;fill-opacity:0.58823529;stroke:none"
         d="m 48,66 0,-2 2.99587,0 0,2 L 48,66 z"
         id="path3399" />
    </g>
    <g
       id="bar-active-bottomleft"
       transform="translate(9.5459415,-17.67767)"
       style="fill:#ffffff;fill-opacity:0.58823532">
      <path
         style="fill:#ffffff;fill-opacity:0.58823529;stroke:none"
         d="m 46,66 0,-2 2,0 0,2 -2,0 z"
         id="path3405" />
    </g>
    <g
       id="bar-active-bottomright"
       transform="translate(9.5459415,-17.67767)"
       style="fill:#ffffff;fill-opacity:0.58823532">
      <path
         id="path3411"
         d="m 52.999995,66 0,-2 -2,0 0,2 2,0 z"
         style="fill:#ffffff;fill-opacity:0.58823529;stroke:none" />
    </g>
    <rect
       style="opacity:1;fill:#3f8400;fill-opacity:0.62745098;fill-rule:nonzero;stroke:none;stroke-width:1.10000002;stroke-linecap:round;stroke-linejoin:miter;stroke-miterlimit:4;stroke-dasharray:none;stroke-dashoffset:0;stroke-opacity:1"
       id="hint-stretch-borders"
       width="3.4471455"
       height="3.5355339"
       x="37.653435"
       y="41.19239" />
    <rect
       style="opacity:1;fill:#3f8400;fill-opacity:0.62745098;fill-rule:nonzero;stroke:none;stroke-width:1.10000002;stroke-linecap:round;stroke-linejoin:miter;stroke-miterlimit:4;stroke-dasharray:none;stroke-dashoffset:0;stroke-opacity:1"
       id="hint-bar-size"
       width="3.4471455"
       height="20"
       x="41.57367"
       y="36.329243" />
    <g
       id="bar-inactive-top"
       transform="translate(17.942834,-17.67767)"
       style="fill:#000000;fill-opacity:0.58823532000000001;opacity:1">
      <path
         style="fill:#000000;fill-opacity:0.58823532000000001;stroke:none;stroke-width:0.30000000999999998;stroke-linecap:round;stroke-linejoin:round;stroke-miterlimit:4;stroke-opacity:1"
         d="M 48,54 L 48,56 L 50.99587,56 L 50.99587,54 L 48,54 z"
         id="path3467" />
    </g>
    <g
       id="bar-inactive-topleft"
       transform="translate(17.942834,-17.67767)"
       style="fill:#000000;fill-opacity:0.58823532000000001;opacity:1">
      <path
         style="fill:#000000;fill-opacity:0.58823532000000001;stroke:none;stroke-width:0.30000000999999998;stroke-linecap:round;stroke-linejoin:round;stroke-miterlimit:4;stroke-opacity:1"
         d="M 46,54 L 46,56 L 48,56 L 48,54 L 46,54 z"
         id="path3473" />
    </g>
    <path
       style="fill:#000000;fill-opacity:0.58823532000000001;stroke:none;stroke-width:0.30000000999999998;stroke-linecap:round;stroke-linejoin:round;stroke-miterlimit:4;stroke-opacity:1;opacity:1"
       d="M 65.946964,38.32233 L 65.946964,46.32233 L 68.942834,46.32233 L 68.942834,38.32233 L 65.946964,38.32233 z"
       id="bar-inactive-center" />
    <g
       id="bar-inactive-left"
       transform="translate(17.942834,-17.67767)"
       style="fill:#000000;fill-opacity:0.58823532000000001;opacity:1">
      <path
         id="path3481"
         d="M 46,56 L 46,64 L 48,64 L 48,56 L 46,56 z"
         style="opacity:1;fill:#000000;fill-opacity:0.58823532000000001;stroke:none;stroke-width:0.30000000999999998;stroke-linecap:round;stroke-linejoin:round;stroke-miterlimit:4;stroke-opacity:1" />
    </g>
    <g
       transform="matrix(-1,0,0,1,116.94283,-17.67767)"
       id="bar-inactive-topright"
       style="fill:#000000;fill-opacity:0.58823532000000001;opacity:1">
      <path
         id="path3487"
         d="M 46,54 L 46,56 L 48,56 L 48,54 L 46,54 z"
         style="fill:#000000;fill-opacity:0.58823532000000001;stroke:none;stroke-width:0.30000000999999998;stroke-linecap:round;stroke-linejoin:round;stroke-miterlimit:4;stroke-opacity:1" />
    </g>
    <g
       transform="matrix(-1,0,0,1,116.94663,-17.67767)"
       id="bar-inactive-right"
       style="fill:#000000;fill-opacity:0.58823532000000001;opacity:1">
      <path
         style="opacity:1;fill:#000000;fill-opacity:0.58823532000000001;stroke:none;stroke-width:0.30000000999999998;stroke-linecap:round;stroke-linejoin:round;stroke-miterlimit:4;stroke-opacity:1"
         d="M 46,56 L 46,64 L 48,64 L 48,56 L 46,56 z"
         id="path3493" />
    </g>
    <g
       id="bar-inactive-bottom"
       transform="translate(17.942834,-17.67767)"
       style="fill:#000000;fill-opacity:0.58823532000000001;opacity:1">
      <path
         id="path3501"
         d="M 48,66 L 48,64 L 50.99587,64 L 50.99587,66 L 48,66 z"
         style="fill:#000000;fill-opacity:0.58823532000000001;stroke:none;stroke-width:0.30000000999999998;stroke-linecap:round;stroke-linejoin:round;stroke-miterlimit:4;stroke-opacity:1" />
    </g>
    <g
       id="bar-inactive-bottomleft"
       transform="translate(17.942834,-17.67767)"
       style="fill:#000000;fill-opacity:0.58823532000000001;opacity:1">
      <path
         id="path3507"
         d="M 46,66 L 46,64 L 48,64 L 48,66 L 46,66 z"
         style="fill:#000000;fill-opacity:0.58823532000000001;stroke:none;stroke-width:0.30000000999999998;stroke-linecap:round;stroke-linejoin:round;stroke-miterlimit:4;stroke-opacity:1" />
    </g>
    <g
       id="bar-inactive-bottomright"
       transform="translate(17.942834,-17.67767)"
       style="fill:#000000;fill-opacity:0.58823532000000001;opacity:1">
      <path
         style="fill:#000000;fill-opacity:0.58823532000000001;stroke:none;stroke-width:0.30000000999999998;stroke-linecap:round;stroke-linejoin:round;stroke-miterlimit:4;stroke-opacity:1"
         d="M 52.999995,66 L 52.999995,64 L 50.999995,64 L 50.999995,66 L 52.999995,66 z"
         id="path3513" />
    </g>
  </g>
</svg>
