<?xml version="1.0" encoding="UTF-8" standalone="no"?>
<!-- Created with Inkscape (http://www.inkscape.org/) -->

<svg
   xmlns:dc="http://purl.org/dc/elements/1.1/"
   xmlns:cc="http://creativecommons.org/ns#"
   xmlns:rdf="http://www.w3.org/1999/02/22-rdf-syntax-ns#"
   xmlns:svg="http://www.w3.org/2000/svg"
   xmlns="http://www.w3.org/2000/svg"
   xmlns:xlink="http://www.w3.org/1999/xlink"
   xmlns:sodipodi="http://sodipodi.sourceforge.net/DTD/sodipodi-0.dtd"
   xmlns:inkscape="http://www.inkscape.org/namespaces/inkscape"
   version="1.0"
   width="410"
   height="210"
   id="svg2861"
   inkscape:version="0.47 r22583"
   sodipodi:docname="picture-frame-default.svgz">
  <metadata
     id="metadata5875">
    <rdf:RDF>
      <cc:Work
         rdf:about="">
        <dc:format>image/svg+xml</dc:format>
        <dc:type
           rdf:resource="http://purl.org/dc/dcmitype/StillImage" />
      </cc:Work>
    </rdf:RDF>
  </metadata>
  <sodipodi:namedview
     pagecolor="#ffffff"
     bordercolor="#666666"
     borderopacity="1"
     objecttolerance="10"
     gridtolerance="10"
     guidetolerance="10"
     inkscape:pageopacity="0"
     inkscape:pageshadow="2"
     inkscape:window-width="1440"
     inkscape:window-height="814"
     id="namedview5873"
     showgrid="false"
     inkscape:snap-page="true"
     inkscape:zoom="1.2190476"
     inkscape:cx="58.984375"
     inkscape:cy="105"
     inkscape:window-x="-4"
     inkscape:window-y="-3"
     inkscape:window-maximized="1"
     inkscape:current-layer="svg2861" />
  <defs
     id="defs2863">
    <inkscape:perspective
       sodipodi:type="inkscape:persp3d"
       inkscape:vp_x="0 : 105 : 1"
       inkscape:vp_y="0 : 1000 : 0"
       inkscape:vp_z="410 : 105 : 1"
       inkscape:persp3d-origin="205 : 70 : 1"
       id="perspective5877" />
    <linearGradient
       id="linearGradient5615">
      <stop
         id="stop5617"
         style="stop-color:#3c3c3c;stop-opacity:0.3137255"
         offset="0" />
      <stop
         id="stop5619"
         style="stop-color:#000000;stop-opacity:0.39215687"
         offset="1" />
    </linearGradient>
    <radialGradient
       cx="740"
       cy="553"
       r="99.999977"
       fx="740"
       fy="553"
       id="radialGradient3643"
       xlink:href="#linearGradient5615"
       gradientUnits="userSpaceOnUse"
       gradientTransform="matrix(-2.8074064e-6,1.1886573,-4.0100494,-4.0686963e-6,2223.0572,-875.77186)"
       spreadMethod="reflect" />
  </defs>
  <rect
     width="50"
     height="41"
     x="-45"
     y="-77"
     id="hint-stretch-borders"
     style="opacity:1;fill:#000000;fill-opacity:1;stroke:none;stroke-width:1;stroke-miterlimit:4;stroke-dasharray:none;stroke-opacity:1" />
  <rect
     style="fill:#000000;fill-opacity:1;stroke:none"
     id="rect5879"
     width="410"
     height="210"
     x="0"
     y="0" />
</svg>
